<svg width="27" height="15"
	viewBox="0 0 27 15" fill="none" xmlns="http://www.w3.org/2000/svg">
	<path d="M0 7H25" stroke="rgb(37,99,235)" stroke-width="2"></path>
	<path d="M19 1L25 7L19 13" stroke="rgb(37,99,235)" stroke-width="2"></path>
</svg>